…
for (k in c(1:5,10)){
  data <- read_delim(paste0("analysis/Chinook_GWAS.filtered.fixedsamps.numericChr.",k,".Q"),
                  col_names = paste0("Q",seq(1:k)),
                  delim=" ")
  data$sample <- samplelist
  data$k <- k

  #Each time a new .Q file is read in, the following step converts it from wide to long format.
  data %>% gather(Q, value, -sample,-k) -> data
  all_data <- rbind(all_data,data) #append this iteration to the full dataset
}

all_data
# A tibble: 2,500 x 4
   sample            k Q     value
   <chr>         <dbl> <chr> <dbl>
 1 Chinook.p1.i0     1 Q1        1
 2 Chinook.p1.i1     1 Q1        1
 3 Chinook.p1.i2     1 Q1        1
 4 Chinook.p1.i3     1 Q1        1
 5 Chinook.p1.i4     1 Q1        1
 6 Chinook.p1.i5     1 Q1        1
 7 Chinook.p1.i6     1 Q1        1
 8 Chinook.p1.i7     1 Q1        1
 9 Chinook.p1.i8     1 Q1        1
10 Chinook.p1.i9     1 Q1        1
# … with 2,490 more rows
…
